INDEX VERSION 1.131+D:\HCL-October\HCL-java\HCL-spring-framework\.metadata\.plugins\org.eclipse.jdt.core
1348089482.index
1013388728.index
963238185.index
3732763767.index
3875318294.index
3397910305.index
2402932754.index
3745997955.index
3939091133.index
506753517.index
275903487.index
1665929229.index
2521272.index
650008044.index
884103277.index
1351896552.index
487835114.index
1051556933.index
1902951637.index
2959885369.index
1218976856.index
4245110630.index
2072484073.index
2298804104.index
2742908344.index
1910758247.index
3495825535.index
169731366.index
923672843.index
3677949881.index
3763270668.index
152465020.index
1589109719.index
3511063826.index
4157910401.index
1817449466.index
2925531749.index
4217711743.index
4006637859.index
4281346861.index
726889488.index
2112521986.index
352438927.index
3279046577.index
212162298.index
64464274.index
1123655245.index
3046412209.index
771667920.index
1202765120.index
141898390.index
360943420.index
2888407967.index
93148298.index
616499511.index
2275437838.index
367104732.index
230984174.index
2469473600.index
411134765.index
2701370115.index
2083913857.index
3779021961.index
512191174.index
43676724.index
1560696052.index
1073229222.index
4263742931.index
389884039.index
4030364412.index
4073292185.index
1607275629.index
1922615558.index
1434472567.index
3352993695.index
2865707182.index
3130041550.index
3800437438.index
3663012071.index
2363780861.index
1141435153.index
1008895103.index
2362532580.index
2552903597.index
2286733801.index
3571075546.index
3055863877.index
1880035794.index
3252006040.index
1212494655.index
978313427.index
4017298958.index
3229204744.index
4052042053.index
2873887520.index
1010176355.index
526354577.index
591349553.index
89339228.index
1745041169.index
3005908576.index
523360980.index
1865797976.index
845013292.index
2199882239.index
3664999893.index
1817722666.index
3689189374.index
3385234625.index
242504821.index
1721324252.index
3700550944.index
177730010.index
1209542014.index
2953425276.index
1367623799.index
605693634.index
545091711.index
4011947491.index
1241700925.index
3958681081.index
3705989582.index
1587277448.index
930402269.index
3237978464.index
839550773.index
1135990043.index
1402973860.index
3427703693.index
2816415296.index
3526203664.index
907273980.index
928739954.index
2138402320.index
3238593330.index
1208201746.index
2102148356.index
3590385591.index
1942460149.index
3282293997.index
3531079534.index
516007791.index
1004425197.index
1935154536.index
2567182786.index
1011175584.index
1689644797.index
1139661139.index
3239426765.index
1416307175.index
3430769373.index
1372429333.index
3763156066.index
422459011.index
2180034931.index
1138694943.index
3730319899.index
4074109778.index
1079573687.index
1270813066.index
161227790.index
2446804332.index
2414989917.index
44024684.index
1462784530.index
4275125904.index
1485029425.index
1207715247.index
2002975767.index
3435648363.index
944699481.index
3272284.index
2626862654.index
3506737524.index
2420204751.index
4075975313.index
578987308.index
758054194.index
4154525613.index
437877807.index
712614700.index
2107277421.index
1261812732.index
3785639889.index
3151877475.index
2050595230.index
2236566773.index
3690305979.index
2153279299.index
2507857102.index
3367153128.index
3463971514.index
1722001369.index
1362028488.index
514649930.index
3010763393.index
1668390398.index
2746771841.index
2737606862.index
4058056076.index
3871988131.index
1837591918.index
1925292322.index
3855223150.index
3988993741.index
14765095.index
2616588116.index
760316267.index
2533071509.index
2210769654.index
1779677279.index
3579927933.index
4282546441.index
2013808753.index
1730646934.index
1102173998.index
2659959901.index
330904205.index
1757608403.index
3237067320.index
515338473.index
2449670837.index
125241569.index
700386142.index
276255071.index
3766077807.index
2441166314.index
708823683.index
1235628120.index
106626159.index
2293257444.index
1835068725.index
2974853912.index
2629074365.index
3080311900.index
2168546313.index
3379148434.index
1874215161.index
3786401180.index
483522272.index
1591497177.index
3642194528.index
219635020.index
2800231061.index
3510379488.index
4079676703.index
3766094550.index
2024799048.index
2109867581.index
3500572471.index
1914470386.index
1470361877.index
510769073.index
661228313.index
4230692460.index
994314726.index
64574381.index
1749881427.index
1954381261.index
3199259740.index
1321066190.index
2898182134.index
3564155314.index
1830447701.index
2637705829.index
826404030.index
354116817.index
227201861.index
2803007108.index
1735182899.index
1797211563.index
2950644402.index
4018549402.index
52924385.index
2072182074.index
2802197453.index
